\begin{tikzpicture}
	\begin{pgfonlayer}{nodelayer}
		\node [style=none] (0) at (0, 5) {};
		\node [style=none] (1) at (0, 0) {};
		\node [style=none] (2) at (0, 4) {};
		\node [style=none] (3) at (4, 4) {};
		\node [style=none] (4) at (4, 0) {};
		\node [style=none] (5) at (4, 5) {};
		\node [style=none] (6) at (-1, -1) {};
		\node [style=none] (7) at (-1, -0.25) {};
		\node [style=none] (8) at (5, -0.25) {};
		\node [style=none] (9) at (5, -1) {};
		\node [style=none] (10) at (2, 4.5) {liquide};
		\node [style=none] (11) at (2, -0.6) {plaque};
	\end{pgfonlayer}
	\begin{pgfonlayer}{edgelayer}
		\draw (1.center) to (0.center);
		\draw (0.center) to (5.center);
		\draw (5.center) to (4.center);
		\draw (4.center) to (1.center);
		\draw (3.center) to (2.center);
		\draw (7.center) to (8.center);
		\draw (8.center) to (9.center);
		\draw (9.center) to (6.center);
		\draw (6.center) to (7.center);
	\end{pgfonlayer}
\end{tikzpicture}
