<?xml version="1.0" encoding="UTF-8" standalone="no"?>
<svg
   xmlns:dc="http://purl.org/dc/elements/1.1/"
   xmlns:cc="http://creativecommons.org/ns#"
   xmlns:rdf="http://www.w3.org/1999/02/22-rdf-syntax-ns#"
   xmlns:svg="http://www.w3.org/2000/svg"
   xmlns="http://www.w3.org/2000/svg"
   xmlns:sodipodi="http://sodipodi.sourceforge.net/DTD/sodipodi-0.dtd"
   xmlns:inkscape="http://www.inkscape.org/namespaces/inkscape"
   width="131.67932mm"
   height="85.282974mm"
   viewBox="0 0 131.67932 85.282974"
   version="1.1"
   id="svg8"
   inkscape:version="1.0.1 (3bc2e813f5, 2020-09-07)"
   sodipodi:docname="composantes.svg">
  <defs
     id="defs2">
    <marker
       style="overflow:visible"
       id="marker1150"
       refX="0"
       refY="0"
       orient="auto"
       inkscape:stockid="Arrow1Lend"
       inkscape:isstock="true">
      <path
         transform="matrix(-0.8,0,0,-0.8,-10,0)"
         style="fill:#000000;fill-opacity:1;fill-rule:evenodd;stroke:#000000;stroke-width:1pt;stroke-opacity:1"
         d="M 0,0 5,-5 -12.5,0 5,5 Z"
         id="path1148" />
    </marker>
    <marker
       style="overflow:visible"
       id="Arrow1Lend"
       refX="0"
       refY="0"
       orient="auto"
       inkscape:stockid="Arrow1Lend"
       inkscape:isstock="true"
       inkscape:collect="always">
      <path
         transform="matrix(-0.8,0,0,-0.8,-10,0)"
         style="fill:#000000;fill-opacity:1;fill-rule:evenodd;stroke:#000000;stroke-width:1pt;stroke-opacity:1"
         d="M 0,0 5,-5 -12.5,0 5,5 Z"
         id="path875" />
    </marker>
  </defs>
  <sodipodi:namedview
     id="base"
     pagecolor="#ffffff"
     bordercolor="#666666"
     borderopacity="1.0"
     inkscape:pageopacity="0.0"
     inkscape:pageshadow="2"
     inkscape:zoom="2.8"
     inkscape:cx="316.83139"
     inkscape:cy="163.41227"
     inkscape:document-units="mm"
     inkscape:current-layer="layer1"
     inkscape:document-rotation="0"
     showgrid="true"
     inkscape:window-width="1842"
     inkscape:window-height="1051"
     inkscape:window-x="0"
     inkscape:window-y="29"
     inkscape:window-maximized="0">
    <inkscape:grid
       type="xygrid"
       id="grid833"
       originx="-18.670174"
       originy="-83.453329" />
  </sodipodi:namedview>
  <metadata
     id="metadata5">
    <rdf:RDF>
      <cc:Work
         rdf:about="">
        <dc:format>image/svg+xml</dc:format>
        <dc:type
           rdf:resource="http://purl.org/dc/dcmitype/StillImage" />
        <dc:title></dc:title>
      </cc:Work>
    </rdf:RDF>
  </metadata>
  <g
     inkscape:label="Layer 1"
     inkscape:groupmode="layer"
     id="layer1"
     transform="translate(-18.670175,-83.453328)">
    <path
       style="fill:none;stroke:#000000;stroke-width:0.264583px;stroke-linecap:butt;stroke-linejoin:miter;stroke-opacity:1;marker-end:url(#marker1150)"
       d="m 148.16666,132.29166 -45.06605,1e-5 -2.55894,0 -37.04167,31.75"
       id="path835"
       sodipodi:nodetypes="cccc" />
    <path
       id="path837"
       style="fill:none;stroke:#000000;stroke-width:1.00157;stroke-linecap:butt;stroke-linejoin:miter;stroke-miterlimit:4;stroke-dasharray:none;stroke-opacity:1;marker-end:url(#Arrow1Lend)"
       d="M 380,340 V 500 Z"
       transform="scale(0.26458333)" />
    <text
       xml:space="preserve"
       style="font-style:normal;font-weight:normal;font-size:10.5833px;line-height:1.25;font-family:sans-serif;fill:#000000;fill-opacity:1;stroke:none;stroke-width:0.264583"
       x="103.1875"
       y="87.3125"
       id="text842"><tspan
         sodipodi:role="line"
         id="tspan840"
         x="103.1875"
         y="87.3125"
         style="stroke-width:0.264583"></tspan></text>
    <text
       xml:space="preserve"
       style="font-style:normal;font-weight:normal;font-size:4.93889px;line-height:1.25;font-family:sans-serif;fill:#000000;fill-opacity:1;stroke:none;stroke-width:0.264583"
       x="96.211624"
       y="87.205727"
       id="text846"><tspan
         sodipodi:role="line"
         id="tspan844"
         x="96.211624"
         y="87.205727"
         style="font-size:4.93889px;stroke-width:0.264583">$z$</tspan></text>
    <text
       xml:space="preserve"
       style="font-size:4.9389px;line-height:1.25;font-family:sans-serif;stroke-width:0.264583"
       x="141.55208"
       y="138.90625"
       id="text850"><tspan
         sodipodi:role="line"
         x="141.55208"
         y="138.90625"
         style="stroke-width:0.264583"
         id="tspan852">$y$</tspan></text>
    <text
       xml:space="preserve"
       style="font-size:4.9389px;line-height:1.25;font-family:sans-serif;stroke-width:0.264583"
       x="58.208332"
       y="168.01042"
       id="text858"><tspan
         sodipodi:role="line"
         id="tspan856"
         x="58.208332"
         y="168.01042"
         style="stroke-width:0.264583">$x$</tspan></text>
    <text
       xml:space="preserve"
       style="font-size:4.9389px;line-height:1.25;font-family:sans-serif;stroke-width:0.264583"
       x="108.47916"
       y="137.58333"
       id="text862"><tspan
         sodipodi:role="line"
         id="tspan860"
         x="108.47916"
         y="137.58333"
         style="stroke-width:0.264583">$\vec{v_y}$</tspan></text>
    <text
       xml:space="preserve"
       style="font-size:4.9389px;line-height:1.25;font-family:sans-serif;stroke-width:0.264583"
       x="103.1875"
       y="107.15625"
       id="text866"><tspan
         sodipodi:role="line"
         id="tspan864"
         x="103.1875"
         y="107.15625"
         style="stroke-width:0.264583">$\vec{v_z}$</tspan></text>
    <text
       xml:space="preserve"
       style="font-size:4.9389px;line-height:1.25;font-family:sans-serif;stroke-width:0.264583"
       x="79.375"
       y="157.42708"
       id="text870"><tspan
         sodipodi:role="line"
         id="tspan868"
         x="79.375"
         y="157.42708"
         style="stroke-width:0.264583">$\vec{v_x}$</tspan></text>
    <circle
       style="fill:#00ff3c;stroke-width:0.264999;stroke-miterlimit:4;stroke-dasharray:none"
       id="path1358"
       cx="100.16368"
       cy="132.76413"
       r="3.3072915" />
    <text
       xml:space="preserve"
       style="font-size:4.9389px;line-height:1.25;font-family:sans-serif;stroke-width:0.264583"
       x="104.51041"
       y="128.32292"
       id="text1362"><tspan
         sodipodi:role="line"
         id="tspan1360"
         x="104.51041"
         y="128.32292"
         style="stroke-width:0.264583">atome</tspan></text>
  </g>
</svg>
